%YAML 1.1
%TAG !u! tag:unity3d.com,2011:
--- !u!687078895 &4343727234628468602
SpriteAtlas:
  m_ObjectHideFlags: 0
  m_CorrespondingSourceObject: {fileID: 0}
  m_PrefabInstance: {fileID: 0}
  m_PrefabAsset: {fileID: 0}
  m_Name: SpriteAtlas
  m_EditorData:
    serializedVersion: 2
    textureSettings:
      serializedVersion: 2
      anisoLevel: 1
      compressionQuality: 50
      maxTextureSize: 2048
      textureCompression: 0
      filterMode: 1
      generateMipMaps: 0
      readable: 0
      crunchedCompression: 0
      sRGB: 1
    platformSettings: []
    packingSettings:
      serializedVersion: 2
      padding: 8
      blockOffset: 1
      allowAlphaSplitting: 0
      enableRotation: 1
      enableTightPacking: 0
      enableAlphaDilation: 0
    secondaryTextureSettings: {}
    variantMultiplier: 1
    packables:
    - {fileID: 102900000, guid: a72ee5b2e5ed25843beed838d583c6f5, type: 3}
    bindAsDefault: 1
    isAtlasV2: 0
    cachedData: {fileID: 0}
  m_MasterAtlas: {fileID: 0}
  m_PackedSprites:
  - {fileID: 21300000, guid: 343d3480dacea0d49a6d43ef854d8d72, type: 3}
  - {fileID: 21300000, guid: 762b41b03d9a2744388009368d9449be, type: 3}
  - {fileID: 21300000, guid: a47b5be0b3bcdf045b32be3ea95c10b9, type: 3}
  - {fileID: 21300000, guid: 463816f118a55754e8ad779b408e614c, type: 3}
  - {fileID: 21300000, guid: 506c1cc2a419a9f49949c7a6b2e1aa39, type: 3}
  - {fileID: 21300000, guid: fd280fc215a0efd41be898af86e39087, type: 3}
  - {fileID: 21300000, guid: 1b241e03267cc844691d18929df76309, type: 3}
  - {fileID: 21300000, guid: b347a753c51c9134688427c295e27ea4, type: 3}
  - {fileID: 21300000, guid: b4eac263210ee634d9b7bb494540407d, type: 3}
  - {fileID: 21300000, guid: 1eee93630101ccf44bcdde685db08a71, type: 3}
  - {fileID: 21300000, guid: 063e0df391cc20449b9ecb49293ff094, type: 3}
  - {fileID: 21300000, guid: 08d881348bffdd541bdc7ab7ff0e5b87, type: 3}
  - {fileID: 21300000, guid: e58e1c948eb1106478c5c2ffd249aa96, type: 3}
  - {fileID: 21300000, guid: d2b41c66e88ebff4aaafcdea89a547d8, type: 3}
  - {fileID: 21300000, guid: 3c8813d73cdb10545ac0ee9836155cee, type: 3}
  - {fileID: 21300000, guid: 375ac9186a9a77a4e886909f80f5a7e5, type: 3}
  - {fileID: 21300000, guid: 9f2627a80de2026479e62ab805cc5b1d, type: 3}
  - {fileID: 21300000, guid: d66a93f9c17993544bba8e3cd5ce7a70, type: 3}
  - {fileID: 21300000, guid: 05c22b5a80b05c44ca93b57c9026fdad, type: 3}
  - {fileID: 21300000, guid: 8d9a3f8ad4aa9444a83373a7b77a2ae6, type: 3}
  - {fileID: 21300000, guid: 7bc7863b4edf343478f079d4803c9159, type: 3}
  - {fileID: 21300000, guid: ea35d46ba5846e34890a25c1eaa3ea7a, type: 3}
  - {fileID: 21300000, guid: bf9d4a8b428a43a438fbabe922f2ea88, type: 3}
  - {fileID: 21300000, guid: e6869dbb330ceff438731418cce6ee73, type: 3}
  - {fileID: 21300000, guid: 429f1b1c584b0c843ab867b18c47a2e5, type: 3}
  - {fileID: 21300000, guid: eb9a90dc40cbcc046893d7ab3b022dad, type: 3}
  - {fileID: 21300000, guid: 19f03c3d3cebe0640ae64f32d7f3d77f, type: 3}
  - {fileID: 21300000, guid: 888aa73e5cf455b4cb0db1f0eb09179e, type: 3}
  - {fileID: 21300000, guid: 63e09f9e22414a64faa56ef4c57fd143, type: 3}
  - {fileID: 21300000, guid: c2dcaa6f010b32e42843c0eccb9c57a4, type: 3}
  m_PackedSpriteNamesToIndex:
  - MainCategoryButtonBackground
  - SubCategoryButtonImageDeselected
  - TexturesButtonImage
  - Rectangle 5176
  - MainBackground
  - RightHand
  - Arrow
  - LoadingSliderBackground
  - LeftHand 1
  - FavoritesButtonImageDeselected
  - BackgroundHigherResolution
  - LeftHand
  - Solid_white_background
  - CardBackground
  - SkinsButtonImage
  - MapsButtonImage
  - SearchButtonImage
  - LoadingImageAlpha
  - FavoritesButtonImageSelected
  - SubCategoryButtonImageSelected
  - SwiperImageDeselected
  - MainMenuBackground
  - SwiperImageSelected
  - Frame 48095669
  - NewSignImage
  - ClearSearchButton
  - LoadingSliderFilled
  - SearchBackground
  - ModsButtonImage
  - GeneratorButtonImage
  m_RenderDataMap: {}
  m_Tag: SpriteAtlas
  m_IsVariant: 0
